^C:\USERS\USER\SOURCE\REPOS\PROJECT2\MAIN.CPP
C:\USERS\USER\SOURCE\REPOS\PROJECT2\PROJECT2\X64\DEBUG\VC143.PDB
C:\USERS\USER\SOURCE\REPOS\PROJECT2\PROJECT2\X64\DEBUG\VC143.IDB
C:\USERS\USER\SOURCE\REPOS\PROJECT2\PROJECT2\X64\DEBUG\MAIN.OBJ
